<?xml version="1.0" encoding="UTF-8" standalone="no"?>
<!-- Created with Inkscape (http://www.inkscape.org/) -->

<svg
   xmlns:osb="http://www.openswatchbook.org/uri/2009/osb"
   xmlns:dc="http://purl.org/dc/elements/1.1/"
   xmlns:cc="http://creativecommons.org/ns#"
   xmlns:rdf="http://www.w3.org/1999/02/22-rdf-syntax-ns#"
   xmlns:svg="http://www.w3.org/2000/svg"
   xmlns="http://www.w3.org/2000/svg"
   xmlns:xlink="http://www.w3.org/1999/xlink"
   xmlns:sodipodi="http://sodipodi.sourceforge.net/DTD/sodipodi-0.dtd"
   xmlns:inkscape="http://www.inkscape.org/namespaces/inkscape"
   width="28.746668"
   height="28.746668"
   id="svg2"
   version="1.1"
   inkscape:version="0.92.5 (2060ec1f9f, 2020-04-08)"
   sodipodi:docname="blue-grey.svg"
   inkscape:export-filename="/home/rober/Software/Fdroid Icon Pack/twelf_icon_template.png"
   inkscape:export-xdpi="640"
   inkscape:export-ydpi="640">
  <title
     id="title3766">Twelf Icon Template</title>
  <defs
     id="defs4">
    <linearGradient
       id="linearGradient5306">
      <stop
         style="stop-color:#ffffff;stop-opacity:0.09876543;"
         offset="0"
         id="stop5308" />
      <stop
         style="stop-color:#ffffff;stop-opacity:0;"
         offset="1"
         id="stop5310" />
    </linearGradient>
    <linearGradient
       id="linearGradient5290">
      <stop
         style="stop-color:#00ffff;stop-opacity:0.09803922;"
         offset="0"
         id="stop5292" />
      <stop
         id="stop6740"
         offset="0.5"
         style="stop-color:#00ff7f;stop-opacity:0.04705882;" />
      <stop
         style="stop-color:#00ff00;stop-opacity:0;"
         offset="1"
         id="stop5294" />
    </linearGradient>
    <linearGradient
       id="linearGradient5188">
      <stop
         style="stop-color:#64b5f6;stop-opacity:0.24705882;"
         offset="0"
         id="stop5198" />
      <stop
         style="stop-color:#64b5f6;stop-opacity:0;"
         offset="1"
         id="stop5192" />
    </linearGradient>
    <linearGradient
       id="linearGradient3975"
       osb:paint="solid">
      <stop
         style="stop-color:#ff5555;stop-opacity:1;"
         offset="0"
         id="stop3977" />
    </linearGradient>
    <linearGradient
       id="linearGradient3969"
       osb:paint="solid">
      <stop
         style="stop-color:#87cdde;stop-opacity:1;"
         offset="0"
         id="stop3971" />
    </linearGradient>
    <filter
       id="filter3945"
       inkscape:label="filtro1"
       x="0"
       y="6"
       width="1.2"
       style="color-interpolation-filters:sRGB">
      <feDiffuseLighting
         id="feDiffuseLighting3947"
         lighting-color="#fdfdfd"
         surfaceScale="121.49533081"
         diffuseConstant="28.44827652" />
    </filter>
    <filter
       inkscape:label="Drop Shadow"
       id="filter3979"
       style="color-interpolation-filters:sRGB">
      <feFlood
         flood-opacity="0.2"
         flood-color="rgb(0,0,0)"
         result="flood"
         id="feFlood3981" />
      <feComposite
         in="flood"
         in2="SourceGraphic"
         operator="in"
         result="composite1"
         id="feComposite3983" />
      <feGaussianBlur
         stdDeviation="6"
         result="blur"
         id="feGaussianBlur3985" />
      <feOffset
         dx="0"
         dy="6"
         result="offset"
         id="feOffset3987" />
      <feComposite
         in="SourceGraphic"
         in2="offset"
         operator="over"
         result="fbSourceGraphic"
         id="feComposite3989" />
      <feColorMatrix
         result="fbSourceGraphicAlpha"
         in="fbSourceGraphic"
         values="0 0 0 -1 0 0 0 0 -1 0 0 0 0 -1 0 0 0 0 1 0"
         id="feColorMatrix3991" />
      <feFlood
         id="feFlood3993"
         flood-opacity="0.2"
         flood-color="rgb(0,0,0)"
         result="flood"
         in="fbSourceGraphic" />
      <feComposite
         id="feComposite3995"
         in2="fbSourceGraphic"
         in="flood"
         operator="in"
         result="composite1" />
      <feGaussianBlur
         id="feGaussianBlur3997"
         stdDeviation="6"
         result="blur" />
      <feOffset
         id="feOffset3999"
         dx="0"
         dy="6"
         result="offset" />
      <feComposite
         id="feComposite4001"
         in2="offset"
         in="fbSourceGraphic"
         operator="over"
         result="composite2" />
    </filter>
    <filter
       style="color-interpolation-filters:sRGB"
       inkscape:label="Drop Shadow"
       id="filter3876">
      <feFlood
         flood-opacity="0.2"
         flood-color="rgb(0,0,0)"
         result="flood"
         id="feFlood3878" />
      <feComposite
         in="flood"
         in2="SourceGraphic"
         operator="in"
         result="composite1"
         id="feComposite3880" />
      <feGaussianBlur
         stdDeviation="6"
         result="blur"
         id="feGaussianBlur3882" />
      <feOffset
         dx="0"
         dy="6"
         result="offset"
         id="feOffset3884" />
      <feComposite
         in="SourceGraphic"
         in2="offset"
         operator="over"
         result="fbSourceGraphic"
         id="feComposite3886" />
      <feColorMatrix
         result="fbSourceGraphicAlpha"
         in="fbSourceGraphic"
         values="0 0 0 -1 0 0 0 0 -1 0 0 0 0 -1 0 0 0 0 1 0"
         id="feColorMatrix3888" />
      <feFlood
         id="feFlood3890"
         flood-opacity="0.397"
         flood-color="rgb(0,0,0)"
         result="flood"
         in="fbSourceGraphic" />
      <feComposite
         id="feComposite3892"
         in2="fbSourceGraphic"
         in="flood"
         operator="in"
         result="composite1" />
      <feGaussianBlur
         id="feGaussianBlur3894"
         stdDeviation="19.2"
         result="blur" />
      <feOffset
         id="feOffset3896"
         dx="0"
         dy="6"
         result="offset" />
      <feComposite
         id="feComposite3898"
         in2="offset"
         in="fbSourceGraphic"
         operator="over"
         result="fbSourceGraphic" />
      <feColorMatrix
         result="fbSourceGraphicAlpha"
         in="fbSourceGraphic"
         values="0 0 0 -1 0 0 0 0 -1 0 0 0 0 -1 0 0 0 0 1 0"
         id="feColorMatrix3900" />
      <feFlood
         id="feFlood3902"
         flood-opacity="0.8"
         flood-color="rgb(0,0,0)"
         result="flood"
         in="fbSourceGraphic" />
      <feComposite
         id="feComposite3904"
         in2="fbSourceGraphic"
         in="flood"
         operator="in"
         result="composite1" />
      <feGaussianBlur
         id="feGaussianBlur3906"
         stdDeviation="19.2"
         result="blur" />
      <feOffset
         id="feOffset3908"
         dx="0"
         dy="6"
         result="offset" />
      <feComposite
         id="feComposite3910"
         in2="offset"
         in="fbSourceGraphic"
         operator="over"
         result="fbSourceGraphic" />
      <feColorMatrix
         result="fbSourceGraphicAlpha"
         in="fbSourceGraphic"
         values="0 0 0 -1 0 0 0 0 -1 0 0 0 0 -1 0 0 0 0 1 0"
         id="feColorMatrix3912" />
      <feFlood
         id="feFlood3914"
         flood-opacity="0.8"
         flood-color="rgb(0,0,0)"
         result="flood"
         in="fbSourceGraphic" />
      <feComposite
         id="feComposite3916"
         in2="fbSourceGraphic"
         in="flood"
         operator="in"
         result="composite1" />
      <feGaussianBlur
         id="feGaussianBlur3918"
         stdDeviation="26.1"
         result="blur" />
      <feOffset
         id="feOffset3920"
         dx="0"
         dy="6"
         result="offset" />
      <feComposite
         id="feComposite3922"
         in2="offset"
         in="fbSourceGraphic"
         operator="over"
         result="fbSourceGraphic" />
      <feColorMatrix
         result="fbSourceGraphicAlpha"
         in="fbSourceGraphic"
         values="0 0 0 -1 0 0 0 0 -1 0 0 0 0 -1 0 0 0 0 1 0"
         id="feColorMatrix3924" />
      <feFlood
         id="feFlood3926"
         flood-opacity="0.8"
         flood-color="rgb(0,0,0)"
         result="flood"
         in="fbSourceGraphic" />
      <feComposite
         id="feComposite3928"
         in2="fbSourceGraphic"
         in="flood"
         operator="in"
         result="composite1" />
      <feGaussianBlur
         id="feGaussianBlur3930"
         stdDeviation="35.7"
         result="blur" />
      <feOffset
         id="feOffset3932"
         dx="0"
         dy="6"
         result="offset" />
      <feComposite
         id="feComposite3934"
         in2="offset"
         in="fbSourceGraphic"
         operator="over"
         result="fbSourceGraphic" />
      <feColorMatrix
         result="fbSourceGraphicAlpha"
         in="fbSourceGraphic"
         values="0 0 0 -1 0 0 0 0 -1 0 0 0 0 -1 0 0 0 0 1 0"
         id="feColorMatrix3936" />
      <feFlood
         id="feFlood3938"
         flood-opacity="0.8"
         flood-color="rgb(0,0,0)"
         result="flood"
         in="fbSourceGraphic" />
      <feComposite
         id="feComposite3940"
         in2="fbSourceGraphic"
         in="flood"
         operator="in"
         result="composite1" />
      <feGaussianBlur
         id="feGaussianBlur3942"
         stdDeviation="6"
         result="blur" />
      <feOffset
         id="feOffset3944"
         dx="0"
         dy="6"
         result="offset" />
      <feComposite
         id="feComposite3946"
         in2="offset"
         in="fbSourceGraphic"
         operator="over"
         result="fbSourceGraphic" />
      <feColorMatrix
         result="fbSourceGraphicAlpha"
         in="fbSourceGraphic"
         values="0 0 0 -1 0 0 0 0 -1 0 0 0 0 -1 0 0 0 0 1 0"
         id="feColorMatrix3948" />
      <feFlood
         id="feFlood3950"
         flood-opacity="0.8"
         flood-color="rgb(0,0,0)"
         result="flood"
         in="fbSourceGraphic" />
      <feComposite
         id="feComposite3952"
         in2="fbSourceGraphic"
         in="flood"
         operator="in"
         result="composite1" />
      <feGaussianBlur
         id="feGaussianBlur3954"
         stdDeviation="21.7"
         result="blur" />
      <feOffset
         id="feOffset3956"
         dx="0"
         dy="6"
         result="offset" />
      <feComposite
         id="feComposite3958"
         in2="offset"
         in="fbSourceGraphic"
         operator="over"
         result="fbSourceGraphic" />
      <feColorMatrix
         result="fbSourceGraphicAlpha"
         in="fbSourceGraphic"
         values="0 0 0 -1 0 0 0 0 -1 0 0 0 0 -1 0 0 0 0 1 0"
         id="feColorMatrix3960" />
      <feFlood
         id="feFlood3962"
         flood-opacity="0.8"
         flood-color="rgb(0,0,0)"
         result="flood"
         in="fbSourceGraphic" />
      <feComposite
         id="feComposite3964"
         in2="fbSourceGraphic"
         in="flood"
         operator="in"
         result="composite1" />
      <feGaussianBlur
         id="feGaussianBlur3966"
         stdDeviation="21.7"
         result="blur" />
      <feOffset
         id="feOffset3968"
         dx="0"
         dy="1.9"
         result="offset" />
      <feComposite
         id="feComposite3970"
         in2="offset"
         in="fbSourceGraphic"
         operator="over"
         result="fbSourceGraphic" />
      <feColorMatrix
         result="fbSourceGraphicAlpha"
         in="fbSourceGraphic"
         values="0 0 0 -1 0 0 0 0 -1 0 0 0 0 -1 0 0 0 0 1 0"
         id="feColorMatrix3972" />
      <feFlood
         id="feFlood3974"
         flood-opacity="0.8"
         flood-color="rgb(0,0,0)"
         result="flood"
         in="fbSourceGraphic" />
      <feComposite
         id="feComposite3976"
         in2="fbSourceGraphic"
         in="flood"
         operator="in"
         result="composite1" />
      <feGaussianBlur
         id="feGaussianBlur3978"
         stdDeviation="21.7"
         result="blur" />
      <feOffset
         id="feOffset3980"
         dx="3.6"
         dy="1.9"
         result="offset" />
      <feComposite
         id="feComposite3982"
         in2="offset"
         in="fbSourceGraphic"
         operator="over"
         result="fbSourceGraphic" />
      <feColorMatrix
         result="fbSourceGraphicAlpha"
         in="fbSourceGraphic"
         values="0 0 0 -1 0 0 0 0 -1 0 0 0 0 -1 0 0 0 0 1 0"
         id="feColorMatrix3984" />
      <feFlood
         id="feFlood3986"
         flood-opacity="0.8"
         flood-color="rgb(0,0,0)"
         result="flood"
         in="fbSourceGraphic" />
      <feComposite
         id="feComposite3988"
         in2="fbSourceGraphic"
         in="flood"
         operator="in"
         result="composite1" />
      <feGaussianBlur
         id="feGaussianBlur3990"
         stdDeviation="21.7"
         result="blur" />
      <feOffset
         id="feOffset3992"
         dx="9.6"
         dy="1.9"
         result="offset" />
      <feComposite
         id="feComposite3994"
         in2="offset"
         in="fbSourceGraphic"
         operator="over"
         result="fbSourceGraphic" />
      <feColorMatrix
         result="fbSourceGraphicAlpha"
         in="fbSourceGraphic"
         values="0 0 0 -1 0 0 0 0 -1 0 0 0 0 -1 0 0 0 0 1 0"
         id="feColorMatrix3996" />
      <feFlood
         id="feFlood3998"
         flood-opacity="0.8"
         flood-color="rgb(0,0,0)"
         result="flood"
         in="fbSourceGraphic" />
      <feComposite
         id="feComposite4000"
         in2="fbSourceGraphic"
         in="flood"
         operator="in"
         result="composite1" />
      <feGaussianBlur
         id="feGaussianBlur4002"
         stdDeviation="21.7"
         result="blur" />
      <feOffset
         id="feOffset4004"
         dx="1.2"
         dy="1.9"
         result="offset" />
      <feComposite
         id="feComposite4006"
         in2="offset"
         in="fbSourceGraphic"
         operator="over"
         result="fbSourceGraphic" />
      <feColorMatrix
         result="fbSourceGraphicAlpha"
         in="fbSourceGraphic"
         values="0 0 0 -1 0 0 0 0 -1 0 0 0 0 -1 0 0 0 0 1 0"
         id="feColorMatrix4008" />
      <feFlood
         id="feFlood4010"
         flood-opacity="0.8"
         flood-color="rgb(0,0,0)"
         result="flood"
         in="fbSourceGraphic" />
      <feComposite
         id="feComposite4012"
         in2="fbSourceGraphic"
         in="flood"
         operator="in"
         result="composite1" />
      <feGaussianBlur
         id="feGaussianBlur4014"
         stdDeviation="21.7"
         result="blur" />
      <feOffset
         id="feOffset4016"
         dx="-1.4"
         dy="1.9"
         result="offset" />
      <feComposite
         id="feComposite4018"
         in2="offset"
         in="fbSourceGraphic"
         operator="over"
         result="fbSourceGraphic" />
      <feColorMatrix
         result="fbSourceGraphicAlpha"
         in="fbSourceGraphic"
         values="0 0 0 -1 0 0 0 0 -1 0 0 0 0 -1 0 0 0 0 1 0"
         id="feColorMatrix4020" />
      <feFlood
         id="feFlood4022"
         flood-opacity="0.8"
         flood-color="rgb(0,0,0)"
         result="flood"
         in="fbSourceGraphic" />
      <feComposite
         id="feComposite4024"
         in2="fbSourceGraphic"
         in="flood"
         operator="in"
         result="composite1" />
      <feGaussianBlur
         id="feGaussianBlur4026"
         stdDeviation="21.7"
         result="blur" />
      <feOffset
         id="feOffset4028"
         dx="0.3"
         dy="1.9"
         result="offset" />
      <feComposite
         id="feComposite4030"
         in2="offset"
         in="fbSourceGraphic"
         operator="over"
         result="fbSourceGraphic" />
      <feColorMatrix
         result="fbSourceGraphicAlpha"
         in="fbSourceGraphic"
         values="0 0 0 -1 0 0 0 0 -1 0 0 0 0 -1 0 0 0 0 1 0"
         id="feColorMatrix4032" />
      <feFlood
         id="feFlood4034"
         flood-opacity="0.8"
         flood-color="rgb(0,0,0)"
         result="flood"
         in="fbSourceGraphic" />
      <feComposite
         id="feComposite4036"
         in2="fbSourceGraphic"
         in="flood"
         operator="in"
         result="composite1" />
      <feGaussianBlur
         id="feGaussianBlur4038"
         stdDeviation="21.7"
         result="blur" />
      <feOffset
         id="feOffset4040"
         dx="-8.04912e-16"
         dy="1.9"
         result="offset" />
      <feComposite
         id="feComposite4042"
         in2="offset"
         in="fbSourceGraphic"
         operator="over"
         result="fbSourceGraphic" />
      <feColorMatrix
         result="fbSourceGraphicAlpha"
         in="fbSourceGraphic"
         values="0 0 0 -1 0 0 0 0 -1 0 0 0 0 -1 0 0 0 0 1 0"
         id="feColorMatrix4044" />
      <feFlood
         id="feFlood4046"
         flood-opacity="0.8"
         flood-color="rgb(0,0,0)"
         result="flood"
         in="fbSourceGraphic" />
      <feComposite
         id="feComposite4048"
         in2="fbSourceGraphic"
         in="flood"
         operator="in"
         result="composite1" />
      <feGaussianBlur
         id="feGaussianBlur4050"
         stdDeviation="21.7"
         result="blur" />
      <feOffset
         id="feOffset4052"
         dx="-8.04912e-16"
         dy="3.6"
         result="offset" />
      <feComposite
         id="feComposite4054"
         in2="offset"
         in="fbSourceGraphic"
         operator="over"
         result="fbSourceGraphic" />
      <feColorMatrix
         result="fbSourceGraphicAlpha"
         in="fbSourceGraphic"
         values="0 0 0 -1 0 0 0 0 -1 0 0 0 0 -1 0 0 0 0 1 0"
         id="feColorMatrix4056" />
      <feFlood
         id="feFlood4058"
         flood-opacity="0.8"
         flood-color="rgb(0,0,0)"
         result="flood"
         in="fbSourceGraphic" />
      <feComposite
         id="feComposite4060"
         in2="fbSourceGraphic"
         in="flood"
         operator="in"
         result="composite1" />
      <feGaussianBlur
         id="feGaussianBlur4062"
         stdDeviation="6"
         result="blur" />
      <feOffset
         id="feOffset4064"
         dx="-8.04912e-16"
         dy="3.6"
         result="offset" />
      <feComposite
         id="feComposite4066"
         in2="offset"
         in="fbSourceGraphic"
         operator="over"
         result="fbSourceGraphic" />
      <feColorMatrix
         result="fbSourceGraphicAlpha"
         in="fbSourceGraphic"
         values="0 0 0 -1 0 0 0 0 -1 0 0 0 0 -1 0 0 0 0 1 0"
         id="feColorMatrix4080" />
      <feFlood
         id="feFlood4082"
         flood-opacity="0.8"
         flood-color="rgb(0,0,0)"
         result="flood"
         in="fbSourceGraphic" />
      <feComposite
         id="feComposite4084"
         in2="fbSourceGraphic"
         in="flood"
         operator="in"
         result="composite1" />
      <feGaussianBlur
         id="feGaussianBlur4086"
         stdDeviation="6"
         result="blur" />
      <feOffset
         id="feOffset4088"
         dx="-8.04912e-16"
         dy="3.6"
         result="offset" />
      <feComposite
         id="feComposite4090"
         in2="offset"
         in="fbSourceGraphic"
         operator="over"
         result="fbSourceGraphic" />
      <feColorMatrix
         result="fbSourceGraphicAlpha"
         in="fbSourceGraphic"
         values="0 0 0 -1 0 0 0 0 -1 0 0 0 0 -1 0 0 0 0 1 0"
         id="feColorMatrix4092" />
      <feFlood
         id="feFlood4094"
         flood-opacity="0.8"
         flood-color="rgb(0,0,0)"
         result="flood"
         in="fbSourceGraphic" />
      <feComposite
         id="feComposite4096"
         in2="fbSourceGraphic"
         in="flood"
         operator="in"
         result="composite1" />
      <feGaussianBlur
         id="feGaussianBlur4098"
         stdDeviation="6"
         result="blur" />
      <feOffset
         id="feOffset4100"
         dx="-8.04912e-16"
         dy="7.7"
         result="offset" />
      <feComposite
         id="feComposite4102"
         in2="offset"
         in="fbSourceGraphic"
         operator="over"
         result="fbSourceGraphic" />
      <feColorMatrix
         result="fbSourceGraphicAlpha"
         in="fbSourceGraphic"
         values="0 0 0 -1 0 0 0 0 -1 0 0 0 0 -1 0 0 0 0 1 0"
         id="feColorMatrix4104" />
      <feFlood
         id="feFlood4106"
         flood-opacity="0.8"
         flood-color="rgb(0,0,0)"
         result="flood"
         in="fbSourceGraphic" />
      <feComposite
         id="feComposite4108"
         in2="fbSourceGraphic"
         in="flood"
         operator="in"
         result="composite1" />
      <feGaussianBlur
         id="feGaussianBlur4110"
         stdDeviation="6"
         result="blur" />
      <feOffset
         id="feOffset4112"
         dx="-8.04912e-16"
         dy="11.6"
         result="offset" />
      <feComposite
         id="feComposite4114"
         in2="offset"
         in="fbSourceGraphic"
         operator="over"
         result="fbSourceGraphic" />
      <feColorMatrix
         result="fbSourceGraphicAlpha"
         in="fbSourceGraphic"
         values="0 0 0 -1 0 0 0 0 -1 0 0 0 0 -1 0 0 0 0 1 0"
         id="feColorMatrix4116" />
      <feFlood
         id="feFlood4118"
         flood-opacity="0.5"
         flood-color="rgb(0,0,0)"
         result="flood"
         in="fbSourceGraphic" />
      <feComposite
         id="feComposite4120"
         in2="fbSourceGraphic"
         in="flood"
         operator="in"
         result="composite1" />
      <feGaussianBlur
         id="feGaussianBlur4122"
         stdDeviation="6"
         result="blur" />
      <feOffset
         id="feOffset4124"
         dx="-8.04912e-16"
         dy="11.6"
         result="offset" />
      <feComposite
         id="feComposite4126"
         in2="offset"
         in="fbSourceGraphic"
         operator="over"
         result="fbSourceGraphic" />
      <feColorMatrix
         result="fbSourceGraphicAlpha"
         in="fbSourceGraphic"
         values="0 0 0 -1 0 0 0 0 -1 0 0 0 0 -1 0 0 0 0 1 0"
         id="feColorMatrix4128" />
      <feFlood
         id="feFlood4130"
         flood-opacity="0.3"
         flood-color="rgb(0,0,0)"
         result="flood"
         in="fbSourceGraphic" />
      <feComposite
         id="feComposite4132"
         in2="fbSourceGraphic"
         in="flood"
         operator="in"
         result="composite1" />
      <feGaussianBlur
         id="feGaussianBlur4134"
         stdDeviation="6"
         result="blur" />
      <feOffset
         id="feOffset4136"
         dx="-8.04912e-16"
         dy="11.6"
         result="offset" />
      <feComposite
         id="feComposite4138"
         in2="offset"
         in="fbSourceGraphic"
         operator="over"
         result="fbSourceGraphic" />
      <feColorMatrix
         result="fbSourceGraphicAlpha"
         in="fbSourceGraphic"
         values="0 0 0 -1 0 0 0 0 -1 0 0 0 0 -1 0 0 0 0 1 0"
         id="feColorMatrix4140" />
      <feFlood
         id="feFlood4142"
         flood-opacity="0.2"
         flood-color="rgb(0,0,0)"
         result="flood"
         in="fbSourceGraphic" />
      <feComposite
         id="feComposite4144"
         in2="fbSourceGraphic"
         in="flood"
         operator="in"
         result="composite1" />
      <feGaussianBlur
         id="feGaussianBlur4146"
         stdDeviation="6"
         result="blur" />
      <feOffset
         id="feOffset4148"
         dx="-8.04912e-16"
         dy="11.6"
         result="offset" />
      <feComposite
         id="feComposite4150"
         in2="offset"
         in="fbSourceGraphic"
         operator="over"
         result="fbSourceGraphic" />
      <feColorMatrix
         result="fbSourceGraphicAlpha"
         in="fbSourceGraphic"
         values="0 0 0 -1 0 0 0 0 -1 0 0 0 0 -1 0 0 0 0 1 0"
         id="feColorMatrix4152" />
      <feFlood
         id="feFlood4154"
         flood-opacity="0.2"
         flood-color="rgb(0,0,0)"
         result="flood"
         in="fbSourceGraphic" />
      <feComposite
         id="feComposite4156"
         in2="fbSourceGraphic"
         in="flood"
         operator="in"
         result="composite1" />
      <feGaussianBlur
         id="feGaussianBlur4158"
         stdDeviation="6"
         result="blur" />
      <feOffset
         id="feOffset4160"
         dx="-8.04912e-16"
         dy="11.6"
         result="offset" />
      <feComposite
         id="feComposite4162"
         in2="offset"
         in="fbSourceGraphic"
         operator="over"
         result="fbSourceGraphic" />
      <feColorMatrix
         result="fbSourceGraphicAlpha"
         in="fbSourceGraphic"
         values="0 0 0 -1 0 0 0 0 -1 0 0 0 0 -1 0 0 0 0 1 0"
         id="feColorMatrix4164" />
      <feFlood
         id="feFlood4166"
         flood-opacity="0.2"
         flood-color="rgb(0,0,0)"
         result="flood"
         in="fbSourceGraphic" />
      <feComposite
         id="feComposite4168"
         in2="fbSourceGraphic"
         in="flood"
         operator="in"
         result="composite1" />
      <feGaussianBlur
         id="feGaussianBlur4170"
         stdDeviation="6"
         result="blur" />
      <feOffset
         id="feOffset4172"
         dx="-8.04912e-16"
         dy="6"
         result="offset" />
      <feComposite
         id="feComposite4174"
         in2="offset"
         in="fbSourceGraphic"
         operator="over"
         result="composite2" />
    </filter>
    <filter
       inkscape:label="Cross-smooth"
       inkscape:menu="Blurs"
       inkscape:menu-tooltip="Blur inner borders and intersections"
       id="filter4522"
       style="color-interpolation-filters:sRGB">
      <feGaussianBlur
         stdDeviation="3"
         id="feGaussianBlur4524" />
      <feColorMatrix
         result="fbSourceGraphic"
         values="1 0 0 0 0 0 1 0 0 0 0 0 1 0 0 0 0 0 6 -2.5 "
         id="feColorMatrix4526" />
    </filter>
    <filter
       inkscape:label="Cross-smooth"
       inkscape:menu="Blurs"
       inkscape:menu-tooltip="Blur inner borders and intersections"
       id="filter4576"
       style="color-interpolation-filters:sRGB">
      <feGaussianBlur
         stdDeviation="3"
         id="feGaussianBlur4578" />
      <feColorMatrix
         result="fbSourceGraphic"
         values="1 0 0 0 0 0 1 0 0 0 0 0 1 0 0 0 0 0 6 -2.5 "
         id="feColorMatrix4580" />
    </filter>
    <filter
       inkscape:label="Cross-smooth"
       inkscape:menu="Blurs"
       inkscape:menu-tooltip="Blur inner borders and intersections"
       id="filter4576-0"
       style="color-interpolation-filters:sRGB">
      <feGaussianBlur
         stdDeviation="3"
         id="feGaussianBlur4578-8" />
      <feColorMatrix
         result="fbSourceGraphic"
         values="1 0 0 0 0 0 1 0 0 0 0 0 1 0 0 0 0 0 6 -2.5 "
         id="feColorMatrix4580-0" />
    </filter>
    <filter
       inkscape:label="Cross-smooth"
       inkscape:menu="Blurs"
       inkscape:menu-tooltip="Blur inner borders and intersections"
       id="filter4576-0-0"
       style="color-interpolation-filters:sRGB">
      <feGaussianBlur
         stdDeviation="3"
         id="feGaussianBlur4578-8-5" />
      <feColorMatrix
         result="fbSourceGraphic"
         values="1 0 0 0 0 0 1 0 0 0 0 0 1 0 0 0 0 0 6 -2.5 "
         id="feColorMatrix4580-0-2" />
    </filter>
    <filter
       inkscape:label="Cross-smooth"
       inkscape:menu="Blurs"
       inkscape:menu-tooltip="Blur inner borders and intersections"
       id="filter4576-0-0-4"
       style="color-interpolation-filters:sRGB">
      <feGaussianBlur
         stdDeviation="3"
         id="feGaussianBlur4578-8-5-2" />
      <feColorMatrix
         result="fbSourceGraphic"
         values="1 0 0 0 0 0 1 0 0 0 0 0 1 0 0 0 0 0 6 -2.5 "
         id="feColorMatrix4580-0-2-7" />
    </filter>
    <radialGradient
       inkscape:collect="always"
       xlink:href="#linearGradient5306"
       id="radialGradient5296"
       cx="9"
       cy="1032.1122"
       fx="9"
       fy="1032.1122"
       r="10.125"
       gradientUnits="userSpaceOnUse"
       gradientTransform="matrix(1.9444444,0,0,1.9444474,-13.5625,-977.58811)" />
    <linearGradient
       inkscape:collect="always"
       xlink:href="#linearGradient5306"
       id="linearGradient5312"
       x1="-15.75"
       y1="1029.2997"
       x2="23.625"
       y2="1029.2997"
       gradientUnits="userSpaceOnUse" />
    <linearGradient
       id="linearGradient3783-1">
      <stop
         id="stop3785-2"
         offset="0"
         style="stop-color:#1e94d3;stop-opacity:1;" />
      <stop
         style="stop-color:#1e94d3;stop-opacity:1;"
         offset="1"
         id="stop3803-6" />
    </linearGradient>
    <linearGradient
       gradientUnits="userSpaceOnUse"
       y2="50"
       x2="30"
       y1="90"
       x1="-10"
       id="linearGradient3827-7"
       xlink:href="#linearGradient3783-1"
       inkscape:collect="always" />
    <linearGradient
       gradientUnits="userSpaceOnUse"
       y2="50"
       x2="30"
       y1="90"
       x1="-10"
       id="linearGradient3827"
       xlink:href="#linearGradient3783"
       inkscape:collect="always" />
    <linearGradient
       id="linearGradient3783">
      <stop
         id="stop3785"
         offset="0"
         style="stop-color:#1e94d3;stop-opacity:1;" />
      <stop
         style="stop-color:#1e94d3;stop-opacity:1;"
         offset="1"
         id="stop3803" />
    </linearGradient>
    <linearGradient
       id="linearGradient3821">
      <stop
         id="stop3823"
         offset="0"
         style="stop-color:#37aee2;stop-opacity:1;" />
      <stop
         id="stop3825"
         offset="1"
         style="stop-color:#1e96c8;stop-opacity:1;" />
    </linearGradient>
    <linearGradient
       id="linearGradient3829">
      <stop
         style="stop-color:#1f96d4;stop-opacity:1;"
         offset="0"
         id="stop3831" />
      <stop
         style="stop-color:#37aee2;stop-opacity:1;"
         offset="1"
         id="stop3833" />
    </linearGradient>
    <linearGradient
       id="linearGradient3877">
      <stop
         id="stop3879"
         offset="0"
         style="stop-color:#eff7fc;stop-opacity:1;" />
      <stop
         id="stop3881"
         offset="1"
         style="stop-color:#ffffff;stop-opacity:1;" />
    </linearGradient>
    <linearGradient
       id="linearGradient3689">
      <stop
         id="stop3691"
         offset="0"
         style="stop-color:#f68000;stop-opacity:1;" />
      <stop
         id="stop3693"
         offset="1"
         style="stop-color:#fd9800;stop-opacity:1;" />
    </linearGradient>
    <linearGradient
       id="linearGradient3675">
      <stop
         id="stop3677"
         offset="0"
         style="stop-color:#ffb900;stop-opacity:1;" />
      <stop
         id="stop3679"
         offset="1"
         style="stop-color:#ffd76b;stop-opacity:1;" />
    </linearGradient>
    <linearGradient
       y2="463.26218"
       x2="412.23013"
       y1="461.92139"
       x1="-113.89329"
       gradientUnits="userSpaceOnUse"
       id="linearGradient3840"
       xlink:href="#linearGradient3675"
       inkscape:collect="always" />
    <linearGradient
       id="linearGradient3634">
      <stop
         style="stop-color:#7a8288;stop-opacity:1;"
         offset="0"
         id="stop3636" />
      <stop
         id="stop3638"
         offset="0.07633271"
         style="stop-color:#9fa3a7;stop-opacity:1;" />
      <stop
         style="stop-color:#7d858b;stop-opacity:1;"
         offset="1"
         id="stop3640" />
    </linearGradient>
    <linearGradient
       y2="12.703197"
       x2="151.34604"
       y1="-0.64152896"
       x1="107.20918"
       gradientTransform="matrix(0.28222223,0,0,0.28222223,-0.13983991,-0.01181449)"
       gradientUnits="userSpaceOnUse"
       id="linearGradient3838"
       xlink:href="#linearGradient3634"
       inkscape:collect="always" />
    <linearGradient
       id="linearGradient3712">
      <stop
         id="stop3714"
         offset="0"
         style="stop-color:#a1abb2;stop-opacity:1;" />
      <stop
         style="stop-color:#eaeced;stop-opacity:1;"
         offset="0.14824273"
         id="stop3720" />
      <stop
         id="stop3716"
         offset="1"
         style="stop-color:#c6ccd0;stop-opacity:1;" />
    </linearGradient>
    <linearGradient
       y2="27.389442"
       x2="164.75943"
       y1="12.640625"
       x1="104.88638"
       gradientUnits="userSpaceOnUse"
       id="linearGradient3836"
       xlink:href="#linearGradient3712"
       inkscape:collect="always" />
    <linearGradient
       id="linearGradient3702">
      <stop
         id="stop3704"
         offset="0"
         style="stop-color:#7a8288;stop-opacity:1;" />
      <stop
         style="stop-color:#9fa3a7;stop-opacity:1;"
         offset="0.5288403"
         id="stop3710" />
      <stop
         id="stop3706"
         offset="1"
         style="stop-color:#7d858b;stop-opacity:1;" />
    </linearGradient>
    <linearGradient
       y2="268.41544"
       x2="334.03125"
       y1="252.48438"
       x1="18.875"
       gradientUnits="userSpaceOnUse"
       id="linearGradient3834"
       xlink:href="#linearGradient3702"
       inkscape:collect="always" />
    <linearGradient
       id="linearGradient3626">
      <stop
         style="stop-color:#a1abb2;stop-opacity:1;"
         offset="0"
         id="stop3628" />
      <stop
         id="stop3630"
         offset="0.08297831"
         style="stop-color:#eaeced;stop-opacity:1;" />
      <stop
         style="stop-color:#c6ccd0;stop-opacity:1;"
         offset="1"
         id="stop3632" />
    </linearGradient>
    <linearGradient
       y2="290.6998"
       x2="278.4324"
       y1="228.59993"
       x1="44.103722"
       gradientUnits="userSpaceOnUse"
       id="linearGradient3832"
       xlink:href="#linearGradient3626"
       inkscape:collect="always" />
    <linearGradient
       id="linearGradient3646">
      <stop
         id="stop3648"
         offset="0"
         style="stop-color:#f48200;stop-opacity:0;" />
      <stop
         style="stop-color:#f48200;stop-opacity:0.72784811;"
         offset="0.58887613"
         id="stop3654" />
      <stop
         id="stop3658"
         offset="0.81621653"
         style="stop-color:#cc5f00;stop-opacity:1;" />
      <stop
         id="stop3650"
         offset="1"
         style="stop-color:#a43d00;stop-opacity:1;" />
    </linearGradient>
    <linearGradient
       y2="55.356419"
       x2="261.62219"
       y1="70.105232"
       x1="115.20164"
       gradientUnits="userSpaceOnUse"
       id="linearGradient3830"
       xlink:href="#linearGradient3646"
       inkscape:collect="always" />
    <linearGradient
       id="linearGradient3668">
      <stop
         style="stop-color:#9b4400;stop-opacity:1;"
         offset="0"
         id="stop3670" />
      <stop
         style="stop-color:#e56300;stop-opacity:1;"
         offset="1"
         id="stop3672" />
    </linearGradient>
    <linearGradient
       y2="108.98846"
       x2="93.522026"
       y1="102.28447"
       x1="64.751183"
       gradientUnits="userSpaceOnUse"
       id="linearGradient3828"
       xlink:href="#linearGradient3668"
       inkscape:collect="always" />
    <linearGradient
       id="linearGradient3649">
      <stop
         id="stop3651"
         offset="0"
         style="stop-color:#e26400;stop-opacity:1;" />
      <stop
         id="stop3653"
         offset="1"
         style="stop-color:#ffb900;stop-opacity:1;" />
    </linearGradient>
    <linearGradient
       y2="125.31633"
       x2="44.375881"
       y1="100.34167"
       x1="40.775471"
       gradientTransform="matrix(1,0,0,1.0202334,0,-1.4234613)"
       gradientUnits="userSpaceOnUse"
       id="linearGradient3826"
       xlink:href="#linearGradient3649"
       inkscape:collect="always" />
    <inkscape:perspective
       sodipodi:type="inkscape:persp3d"
       inkscape:vp_x="0 : 0.53333333 : 1"
       inkscape:vp_y="0 : 1066.6667 : 0"
       inkscape:vp_z="1.0666667 : 0.53333333 : 1"
       inkscape:persp3d-origin="0.53333333 : 0.35555555 : 1"
       id="perspective3852" />
    <inkscape:perspective
       id="perspective3924"
       inkscape:persp3d-origin="396.85039 : 374.17322 : 1"
       inkscape:vp_z="793.70078 : 561.25983 : 1"
       inkscape:vp_y="0 : 1066.6667 : 0"
       inkscape:vp_x="0 : 561.25983 : 1"
       sodipodi:type="inkscape:persp3d" />
    <linearGradient
       id="linearGradient3689-2">
      <stop
         id="stop3691-2"
         offset="0"
         style="stop-color:#f68000;stop-opacity:1;" />
      <stop
         id="stop3693-3"
         offset="1"
         style="stop-color:#fd9800;stop-opacity:1;" />
    </linearGradient>
    <linearGradient
       id="linearGradient3675-8">
      <stop
         id="stop3677-4"
         offset="0"
         style="stop-color:#ffb900;stop-opacity:1;" />
      <stop
         id="stop3679-7"
         offset="1"
         style="stop-color:#ffd76b;stop-opacity:1;" />
    </linearGradient>
    <linearGradient
       y2="463.26218"
       x2="412.23013"
       y1="461.92139"
       x1="-113.89329"
       gradientUnits="userSpaceOnUse"
       id="linearGradient3840-4"
       xlink:href="#linearGradient3675-8"
       inkscape:collect="always" />
    <linearGradient
       id="linearGradient3634-7">
      <stop
         style="stop-color:#7a8288;stop-opacity:1;"
         offset="0"
         id="stop3636-4" />
      <stop
         id="stop3638-6"
         offset="0.07633271"
         style="stop-color:#9fa3a7;stop-opacity:1;" />
      <stop
         style="stop-color:#7d858b;stop-opacity:1;"
         offset="1"
         id="stop3640-9" />
    </linearGradient>
    <linearGradient
       y2="12.703197"
       x2="151.34604"
       y1="-0.64152896"
       x1="107.20918"
       gradientTransform="matrix(0.28222223,0,0,0.28222223,-0.13983991,-0.01181449)"
       gradientUnits="userSpaceOnUse"
       id="linearGradient3838-1"
       xlink:href="#linearGradient3634-7"
       inkscape:collect="always" />
    <linearGradient
       id="linearGradient3712-7">
      <stop
         id="stop3714-7"
         offset="0"
         style="stop-color:#a1abb2;stop-opacity:1;" />
      <stop
         style="stop-color:#eaeced;stop-opacity:1;"
         offset="0.14824273"
         id="stop3720-2" />
      <stop
         id="stop3716-3"
         offset="1"
         style="stop-color:#c6ccd0;stop-opacity:1;" />
    </linearGradient>
    <linearGradient
       y2="27.389442"
       x2="164.75943"
       y1="12.640625"
       x1="104.88638"
       gradientUnits="userSpaceOnUse"
       id="linearGradient3836-7"
       xlink:href="#linearGradient3712-7"
       inkscape:collect="always" />
    <linearGradient
       id="linearGradient3702-3">
      <stop
         id="stop3704-5"
         offset="0"
         style="stop-color:#7a8288;stop-opacity:1;" />
      <stop
         style="stop-color:#9fa3a7;stop-opacity:1;"
         offset="0.5288403"
         id="stop3710-4" />
      <stop
         id="stop3706-4"
         offset="1"
         style="stop-color:#7d858b;stop-opacity:1;" />
    </linearGradient>
    <linearGradient
       y2="268.41544"
       x2="334.03125"
       y1="252.48438"
       x1="18.875"
       gradientUnits="userSpaceOnUse"
       id="linearGradient3834-9"
       xlink:href="#linearGradient3702-3"
       inkscape:collect="always" />
    <linearGradient
       id="linearGradient3626-6">
      <stop
         style="stop-color:#a1abb2;stop-opacity:1;"
         offset="0"
         id="stop3628-0" />
      <stop
         id="stop3630-5"
         offset="0.08297831"
         style="stop-color:#eaeced;stop-opacity:1;" />
      <stop
         style="stop-color:#c6ccd0;stop-opacity:1;"
         offset="1"
         id="stop3632-7" />
    </linearGradient>
    <linearGradient
       y2="290.6998"
       x2="278.4324"
       y1="228.59993"
       x1="44.103722"
       gradientUnits="userSpaceOnUse"
       id="linearGradient3832-3"
       xlink:href="#linearGradient3626-6"
       inkscape:collect="always" />
    <linearGradient
       id="linearGradient3646-6">
      <stop
         id="stop3648-6"
         offset="0"
         style="stop-color:#f48200;stop-opacity:0;" />
      <stop
         style="stop-color:#f48200;stop-opacity:0.72784811;"
         offset="0.58887613"
         id="stop3654-6" />
      <stop
         id="stop3658-4"
         offset="0.81621653"
         style="stop-color:#cc5f00;stop-opacity:1;" />
      <stop
         id="stop3650-0"
         offset="1"
         style="stop-color:#a43d00;stop-opacity:1;" />
    </linearGradient>
    <linearGradient
       y2="55.356419"
       x2="261.62219"
       y1="70.105232"
       x1="115.20164"
       gradientUnits="userSpaceOnUse"
       id="linearGradient3830-6"
       xlink:href="#linearGradient3646-6"
       inkscape:collect="always" />
    <linearGradient
       id="linearGradient3668-5">
      <stop
         style="stop-color:#9b4400;stop-opacity:1;"
         offset="0"
         id="stop3670-3" />
      <stop
         style="stop-color:#e56300;stop-opacity:1;"
         offset="1"
         id="stop3672-2" />
    </linearGradient>
    <linearGradient
       y2="108.98846"
       x2="93.522026"
       y1="102.28447"
       x1="64.751183"
       gradientUnits="userSpaceOnUse"
       id="linearGradient3828-1"
       xlink:href="#linearGradient3668-5"
       inkscape:collect="always" />
    <linearGradient
       id="linearGradient3649-3">
      <stop
         id="stop3651-9"
         offset="0"
         style="stop-color:#e26400;stop-opacity:1;" />
      <stop
         id="stop3653-7"
         offset="1"
         style="stop-color:#ffb900;stop-opacity:1;" />
    </linearGradient>
    <linearGradient
       y2="125.31633"
       x2="44.375881"
       y1="100.34167"
       x1="40.775471"
       gradientTransform="matrix(1,0,0,1.0202334,0,-1.4234613)"
       gradientUnits="userSpaceOnUse"
       id="linearGradient3826-1"
       xlink:href="#linearGradient3649-3"
       inkscape:collect="always" />
    <inkscape:perspective
       sodipodi:type="inkscape:persp3d"
       inkscape:vp_x="0 : 0.53333333 : 1"
       inkscape:vp_y="0 : 1066.6667 : 0"
       inkscape:vp_z="1.0666667 : 0.53333333 : 1"
       inkscape:persp3d-origin="0.53333333 : 0.35555555 : 1"
       id="perspective3852-5" />
    <inkscape:perspective
       id="perspective3924-4"
       inkscape:persp3d-origin="396.85039 : 374.17322 : 1"
       inkscape:vp_z="793.70078 : 561.25983 : 1"
       inkscape:vp_y="0 : 1066.6667 : 0"
       inkscape:vp_x="0 : 561.25983 : 1"
       sodipodi:type="inkscape:persp3d" />
    <linearGradient
       id="linearGradient2460"
       y2="44.984001"
       gradientUnits="userSpaceOnUse"
       x2="19.360001"
       y1="21.030804"
       x1="19.244999">
      <stop
         id="stop3602"
         style="stop-color:#fafafa;stop-opacity:1;"
         offset="0" />
      <stop
         id="stop3604"
         style="stop-color:#f0f0f0;stop-opacity:1;"
         offset="1" />
    </linearGradient>
    <linearGradient
       inkscape:collect="always"
       xlink:href="#linearGradient2460"
       id="linearGradient3157"
       gradientUnits="userSpaceOnUse"
       gradientTransform="matrix(12.102564,0,0,12.102564,-34.468255,-46.187105)"
       x1="18.930269"
       y1="6.2951212"
       x2="19.360001"
       y2="36.643665" />
    <linearGradient
       id="linearGradient5479-2">
      <stop
         id="stop5481-7"
         offset="0"
         style="stop-color:#be5300;stop-opacity:1;" />
      <stop
         style="stop-color:#f07300;stop-opacity:1"
         offset="0.76255572"
         id="stop5483-4" />
      <stop
         id="stop5485-2"
         offset="1"
         style="stop-color:#e67700;stop-opacity:1;" />
    </linearGradient>
    <linearGradient
       y2="134.64415"
       x2="128.50706"
       y1="101.1183"
       x1="4.1104655"
       gradientTransform="matrix(1.2351592,0,0,1.2351592,262.25708,326.9873)"
       gradientUnits="userSpaceOnUse"
       id="linearGradient3900"
       xlink:href="#linearGradient5479-2"
       inkscape:collect="always" />
    <linearGradient
       id="linearGradient5479-6">
      <stop
         style="stop-color:#be5300;stop-opacity:1;"
         offset="0"
         id="stop5481-6" />
      <stop
         id="stop5483-0"
         offset="0.76255572"
         style="stop-color:#f07300;stop-opacity:1" />
      <stop
         style="stop-color:#e67700;stop-opacity:1;"
         offset="1"
         id="stop5485-5" />
    </linearGradient>
    <linearGradient
       inkscape:collect="always"
       xlink:href="#linearGradient5479-6"
       id="linearGradient5467-1"
       gradientUnits="userSpaceOnUse"
       gradientTransform="matrix(1.2351592,0,0,1.2351592,262.25708,326.9873)"
       x1="4.1104655"
       y1="101.1183"
       x2="128.50706"
       y2="134.64415" />
    <linearGradient
       id="linearGradient5447">
      <stop
         id="stop5451"
         offset="0"
         style="stop-color:#e66e00;stop-opacity:1;" />
      <stop
         style="stop-color:#e67700;stop-opacity:1;"
         offset="1"
         id="stop5453" />
    </linearGradient>
    <linearGradient
       id="linearGradient5479">
      <stop
         style="stop-color:#be5300;stop-opacity:1;"
         offset="0"
         id="stop5481" />
      <stop
         id="stop5483"
         offset="0.76255572"
         style="stop-color:#f07300;stop-opacity:1" />
      <stop
         style="stop-color:#e67700;stop-opacity:1;"
         offset="1"
         id="stop5485" />
    </linearGradient>
    <linearGradient
       inkscape:collect="always"
       xlink:href="#linearGradient5479"
       id="linearGradient5467"
       gradientUnits="userSpaceOnUse"
       gradientTransform="matrix(1.2351592,0,0,1.2351592,262.25708,326.9873)"
       x1="4.1104655"
       y1="101.1183"
       x2="128.50706"
       y2="134.64415" />
    <linearGradient
       gradientTransform="matrix(1.0058652,0,0,0.994169,100,0)"
       gradientUnits="userSpaceOnUse"
       id="linearGradient3416"
       y2="7.0165396"
       x2="45.447727"
       y1="92.539597"
       x1="45.447727">
      <stop
         offset="0"
         style="stop-color:#000000;stop-opacity:1"
         id="stop3418" />
      <stop
         offset="1"
         style="stop-color:#000000;stop-opacity:0.58823532"
         id="stop3420" />
    </linearGradient>
    <linearGradient
       inkscape:collect="always"
       xlink:href="#ButtonShadow-0-1-1-5"
       id="linearGradient5342"
       gradientUnits="userSpaceOnUse"
       gradientTransform="matrix(1.0074153,0,0,1.0074153,-810.48879,593.1369)"
       x1="1012.5133"
       y1="484.41721"
       x2="1006.8082"
       y2="20.625916" />
    <linearGradient
       gradientTransform="matrix(1.0058652,0,0,0.994169,100,0)"
       gradientUnits="userSpaceOnUse"
       id="linearGradient3409"
       y2="7.0165396"
       x2="45.447727"
       y1="92.539597"
       x1="45.447727">
      <stop
         offset="0"
         style="stop-color:#000000;stop-opacity:1"
         id="stop3411" />
      <stop
         offset="1"
         style="stop-color:#000000;stop-opacity:0.58823532"
         id="stop3413" />
    </linearGradient>
    <linearGradient
       gradientTransform="matrix(1.0058652,0,0,0.994169,100,0)"
       gradientUnits="userSpaceOnUse"
       id="linearGradient3402"
       y2="7.0165396"
       x2="45.447727"
       y1="92.539597"
       x1="45.447727">
      <stop
         offset="0"
         style="stop-color:#000000;stop-opacity:1"
         id="stop3404" />
      <stop
         offset="1"
         style="stop-color:#000000;stop-opacity:0.58823532"
         id="stop3406" />
    </linearGradient>
    <linearGradient
       gradientTransform="matrix(1.0058652,0,0,0.994169,100,0)"
       gradientUnits="userSpaceOnUse"
       id="linearGradient3395"
       y2="7.0165396"
       x2="45.447727"
       y1="92.539597"
       x1="45.447727">
      <stop
         offset="0"
         style="stop-color:#000000;stop-opacity:1"
         id="stop3397" />
      <stop
         offset="1"
         style="stop-color:#000000;stop-opacity:0.58823532"
         id="stop3399" />
    </linearGradient>
    <linearGradient
       gradientTransform="matrix(1.0058652,0,0,0.994169,100,0)"
       gradientUnits="userSpaceOnUse"
       id="ButtonShadow-0-1-1-5"
       y2="7.0165396"
       x2="45.447727"
       y1="92.539597"
       x1="45.447727">
      <stop
         offset="0"
         style="stop-color:#000000;stop-opacity:1"
         id="stop3750-8-9-3-6" />
      <stop
         offset="1"
         style="stop-color:#000000;stop-opacity:0.58823532"
         id="stop3752-5-6-4-2" />
    </linearGradient>
    <linearGradient
       id="linearGradient4046">
      <stop
         offset="0"
         style="stop-color:#000000;stop-opacity:1;"
         id="stop4048" />
      <stop
         offset="1"
         style="stop-color:#ffffff;stop-opacity:0.2"
         id="stop4050" />
    </linearGradient>
    <linearGradient
       id="linearGradient3737">
      <stop
         offset="0"
         style="stop-color:#ffffff;stop-opacity:1"
         id="stop3739" />
      <stop
         offset="1"
         style="stop-color:#ffffff;stop-opacity:0"
         id="stop3741" />
    </linearGradient>
    <linearGradient
       id="linearGradient4487">
      <stop
         offset="0"
         style="stop-color:#000000;stop-opacity:1"
         id="stop4489" />
      <stop
         offset="1"
         style="stop-color:#000000;stop-opacity:0"
         id="stop4491" />
    </linearGradient>
    <linearGradient
       y2="251.66064"
       x2="1011.9534"
       y1="476.25983"
       x1="1016.1035"
       gradientTransform="translate(-146.22032,369.08845)"
       gradientUnits="userSpaceOnUse"
       id="linearGradient4082"
       xlink:href="#linearGradient4487"
       inkscape:collect="always" />
    <linearGradient
       inkscape:collect="always"
       xlink:href="#SVGID_2_"
       id="linearGradient3803"
       x1="259.99384"
       y1="44"
       x2="259.99384"
       y2="464"
       gradientUnits="userSpaceOnUse" />
    <linearGradient
       y2="217.4595"
       x2="200.0508"
       y1="185.0742"
       x1="200.0508"
       gradientTransform="matrix(9.2574736,0,0,9.2574736,-1595.9285,-1607.2111)"
       gradientUnits="userSpaceOnUse"
       id="linearGradient3017"
       xlink:href="#SVGID_2_"
       inkscape:collect="always" />
    <linearGradient
       inkscape:collect="always"
       xlink:href="#SVGID_2_"
       id="linearGradient3021"
       gradientUnits="userSpaceOnUse"
       gradientTransform="matrix(13.577628,0,0,13.577628,-2026.1619,-2566.7096)"
       x1="200.0508"
       y1="185.0742"
       x2="200.0508"
       y2="217.4595" />
    <linearGradient
       y2="217.4595"
       x2="200.0508"
       y1="185.0742"
       x1="200.0508"
       gradientUnits="userSpaceOnUse"
       id="SVGID_2_">
      <stop
         id="stop13"
         style="stop-color:#61B74A"
         offset="0" />
      <stop
         id="stop15"
         style="stop-color:#449934"
         offset="1" />
    </linearGradient>
    <radialGradient
       gradientUnits="userSpaceOnUse"
       gradientTransform="matrix(1,0,0,1.0499906,0,-19.270593)"
       r="191.6187"
       fy="385.4841"
       fx="558.35437"
       cy="385.4841"
       cx="558.35437"
       id="radialGradient3867"
       xlink:href="#XMLID_74_-8-1"
       inkscape:collect="always" />
    <linearGradient
       y2="48.0854"
       x2="78.466103"
       y1="56.3008"
       x1="64.477501"
       gradientUnits="userSpaceOnUse"
       id="XMLID_74_-8-1">
      <stop
         id="stop155-3-8"
         style="stop-color:#ffffff;stop-opacity:1;"
         offset="0" />
      <stop
         id="stop157-94-6"
         style="stop-color:#e6e6e6;stop-opacity:1;"
         offset="1" />
    </linearGradient>
    <filter
       style="color-interpolation-filters:sRGB"
       inkscape:collect="always"
       id="filter6206-7">
      <feGaussianBlur
         inkscape:collect="always"
         stdDeviation="0.658125"
         id="feGaussianBlur6208-9" />
    </filter>
  </defs>
  <sodipodi:namedview
     id="base"
     pagecolor="#ffffff"
     bordercolor="#666666"
     borderopacity="1.0"
     inkscape:pageopacity="0.0"
     inkscape:pageshadow="2"
     inkscape:zoom="16.000001"
     inkscape:cx="8.0616697"
     inkscape:cy="9.0253498"
     inkscape:document-units="pt"
     inkscape:current-layer="layer2"
     showgrid="false"
     inkscape:window-width="1920"
     inkscape:window-height="1020"
     inkscape:window-x="0"
     inkscape:window-y="0"
     inkscape:window-maximized="1"
     units="px"
     showguides="false">
    <inkscape:grid
       type="xygrid"
       id="grid2985"
       empspacing="4"
       visible="true"
       enabled="true"
       snapvisiblegridlinesonly="true"
       spacingx="0.59866667"
       spacingy="0.59866667"
       units="pt"
       originx="0"
       originy="0" />
  </sodipodi:namedview>
  <metadata
     id="metadata7">
    <rdf:RDF>
      <cc:Work
         rdf:about="">
        <dc:format>image/svg+xml</dc:format>
        <dc:type
           rdf:resource="http://purl.org/dc/dcmitype/StillImage" />
        <dc:title>Twelf Icon Template</dc:title>
        <dc:creator>
          <cc:Agent>
            <dc:title>xphnx</dc:title>
          </cc:Agent>
        </dc:creator>
        <cc:license
           rdf:resource="http://creativecommons.org/licenses/by-nc-sa/3.0/" />
      </cc:Work>
      <cc:License
         rdf:about="http://creativecommons.org/licenses/by-nc-sa/3.0/">
        <cc:permits
           rdf:resource="http://creativecommons.org/ns#Reproduction" />
        <cc:permits
           rdf:resource="http://creativecommons.org/ns#Distribution" />
        <cc:requires
           rdf:resource="http://creativecommons.org/ns#Notice" />
        <cc:requires
           rdf:resource="http://creativecommons.org/ns#Attribution" />
        <cc:prohibits
           rdf:resource="http://creativecommons.org/ns#CommercialUse" />
        <cc:permits
           rdf:resource="http://creativecommons.org/ns#DerivativeWorks" />
        <cc:requires
           rdf:resource="http://creativecommons.org/ns#ShareAlike" />
      </cc:License>
    </rdf:RDF>
  </metadata>
  <g
     inkscape:label="background"
     inkscape:groupmode="layer"
     id="layer1"
     transform="translate(0,-1093.773)"
     style="display:inline"
     sodipodi:insensitive="true">
    <path
       transform="matrix(1.0780877,0,0,1.0641323,-0.09373327,2.7509419)"
       inkscape:connector-curvature="0"
       id="rect6141-3"
       d="m 4.417683,1028.1747 v 1.6051 H 2.8125 v 18.1922 h 1.605183 v 2.1402 h 18.192073 v -2.1402 H 24.75 v -18.1922 h -2.140244 v -1.6051 z"
       style="display:inline;opacity:0.2;fill:#263238;fill-opacity:1;stroke:none;filter:url(#filter6206-7)" />
    <rect
       style="display:inline;opacity:1;fill:#607d8b;fill-opacity:1;fill-rule:nonzero;stroke:none;stroke-width:0.06666667;stroke-linecap:round;stroke-linejoin:round;stroke-miterlimit:4;stroke-dasharray:none;stroke-dashoffset:0;stroke-opacity:1"
       id="rect4731-1"
       width="22.749332"
       height="22.749332"
       x="2.9986675"
       y="1096.7717"
       ry="1.1973943"
       rx="1.1973323" />
    <g
       id="g4337"
       transform="translate(-22.320454,1056.4942)">
      <path
         id="path4329"
         d="M 0,0 H 51.2 V 51.2 H 0 Z"
         inkscape:connector-curvature="0"
         style="fill:none;stroke-width:1.06666672" />
      <g
         id="g4666"
         transform="matrix(0.33600544,0,0,0.33600544,1.5295902,73.042549)">
        <path
           id="path4656"
           d="M 0,0 H 51.2 V 51.2 H 0 Z"
           inkscape:connector-curvature="0"
           style="fill:none;stroke-width:1.06666672" />
      </g>
      <g
         id="g5363"
         transform="matrix(0.37187349,0,0,0.37187349,38.801738,63.239042)">
        <path
           id="path5355"
           d="M 0,0 H 51.2 V 51.2 H 0 Z"
           inkscape:connector-curvature="0"
           style="fill:none;stroke-width:1.06666672" />
        <g
           id="g5646"
           transform="matrix(2.6890865,0,0,2.6890865,-82.905872,-48.450082)">
          <path
             id="path5638"
             d="M 0,0 H 51.2 V 51.2 H 0 Z"
             inkscape:connector-curvature="0"
             style="fill:none;stroke-width:1.06666672" />
        </g>
      </g>
    </g>
    <path
       style="opacity:0.2;fill:#ffffff;fill-opacity:1;fill-rule:nonzero;stroke:none;stroke-width:0.06666667;stroke-linecap:round;stroke-linejoin:round;stroke-miterlimit:4;stroke-dasharray:none;stroke-dashoffset:0;stroke-opacity:1"
       d="m 4.1958334,1096.7709 c -0.6633221,0 -1.1979167,0.5346 -1.1979167,1.1979 v 0.3334 c 0,-0.6634 0.5345946,-1.1979 1.1979167,-1.1979 H 24.55 c 0.663322,0 1.197917,0.5345 1.197917,1.1979 v -0.3334 c 0,-0.6633 -0.534595,-1.1979 -1.197917,-1.1979 z"
       id="rect4731"
       inkscape:connector-curvature="0" />
    <rect
       style="fill:none;stroke-width:1.06666672"
       id="rect2987"
       width="42.666668"
       height="42.666668"
       x="128"
       y="546.51965" />
    <rect
       style="fill:none;stroke-width:1.06666672"
       id="rect2987-4"
       width="42.666668"
       height="42.666668"
       x="128"
       y="631.85297" />
    <rect
       style="fill:none;stroke-width:1.06666672"
       id="rect2987-42"
       width="42.666668"
       height="42.666668"
       x="128"
       y="674.51965" />
    <rect
       style="fill:none;stroke-width:1.06666672"
       id="rect2987-41"
       width="42.666668"
       height="42.666668"
       x="128"
       y="589.18634" />
    <rect
       style="fill:none;stroke-width:1.06666672"
       id="rect2987-42-2"
       width="42.666668"
       height="42.666668"
       x="128"
       y="717.18634" />
    <rect
       style="fill:none;stroke-width:1.06666672"
       id="rect2987-2"
       width="42.666668"
       height="42.666668"
       x="213.33333"
       y="546.51965" />
    <rect
       style="fill:none;stroke-width:1.06666672"
       id="rect2987-4-3"
       width="42.666668"
       height="42.666668"
       x="213.33333"
       y="631.85297" />
    <rect
       style="fill:none;stroke-width:1.06666672"
       id="rect2987-42-3"
       width="42.666668"
       height="42.666668"
       x="213.33333"
       y="674.51965" />
    <rect
       style="fill:none;stroke-width:1.06666672"
       id="rect2987-41-5"
       width="42.666668"
       height="42.666668"
       x="213.33333"
       y="589.18634" />
    <rect
       style="fill:none;stroke-width:1.06666672"
       id="rect2987-42-2-4"
       width="42.666668"
       height="42.666668"
       x="213.33333"
       y="717.18634" />
    <rect
       style="fill:none;stroke-width:1.06666672"
       id="rect2987-9"
       width="42.666668"
       height="42.666668"
       x="298.66666"
       y="546.51965" />
    <rect
       style="fill:none;stroke-width:1.06666672"
       id="rect2987-4-4"
       width="42.666668"
       height="42.666668"
       x="298.66666"
       y="631.85297" />
    <rect
       style="fill:none;stroke-width:1.06666672"
       id="rect2987-42-8"
       width="42.666668"
       height="42.666668"
       x="298.66666"
       y="674.51965" />
    <rect
       style="fill:none;stroke-width:1.06666672"
       id="rect2987-41-6"
       width="42.666668"
       height="42.666668"
       x="298.66666"
       y="589.18634" />
    <rect
       style="fill:none;stroke-width:1.06666672"
       id="rect2987-42-2-3"
       width="42.666668"
       height="42.666668"
       x="298.66666"
       y="717.18634" />
    <rect
       style="fill:none;stroke-width:1.06666672"
       id="rect2987-7"
       width="42.666668"
       height="42.666668"
       x="170.66667"
       y="546.51965" />
    <rect
       style="fill:none;stroke-width:1.06666672"
       id="rect2987-4-7"
       width="42.666668"
       height="42.666668"
       x="170.66667"
       y="631.85297" />
    <rect
       style="fill:none;stroke-width:1.06666672"
       id="rect2987-42-9"
       width="42.666668"
       height="42.666668"
       x="170.66667"
       y="674.51965" />
    <rect
       style="fill:none;stroke-width:1.06666672"
       id="rect2987-41-0"
       width="42.666668"
       height="42.666668"
       x="170.66667"
       y="589.18634" />
    <rect
       style="fill:none;stroke-width:1.06666672"
       id="rect2987-42-2-5"
       width="42.666668"
       height="42.666668"
       x="170.66667"
       y="717.18634" />
    <rect
       style="fill:none;stroke-width:1.06666672"
       id="rect2987-7-3"
       width="42.666668"
       height="42.666668"
       x="256"
       y="546.51965" />
    <rect
       style="fill:none;stroke-width:1.06666672"
       id="rect2987-4-7-9"
       width="42.666668"
       height="42.666668"
       x="256"
       y="631.85297" />
    <rect
       style="fill:none;stroke-width:1.06666672"
       id="rect2987-42-9-7"
       width="42.666668"
       height="42.666668"
       x="256"
       y="674.51965" />
    <rect
       style="fill:none;stroke-width:1.06666672"
       id="rect2987-41-0-0"
       width="42.666668"
       height="42.666668"
       x="256"
       y="589.18634" />
    <rect
       style="fill:none;stroke-width:1.06666672"
       id="rect2987-42-2-5-5"
       width="42.666668"
       height="42.666668"
       x="256"
       y="717.18634" />
    <rect
       style="fill:none;stroke-width:1.06666672"
       id="rect2987-42-2-34"
       width="42.666668"
       height="42.666668"
       x="128"
       y="759.85297" />
    <rect
       style="fill:none;stroke-width:1.06666672"
       id="rect2987-42-2-4-1"
       width="42.666668"
       height="42.666668"
       x="213.33333"
       y="759.85297" />
    <rect
       style="fill:none;stroke-width:1.06666672"
       id="rect2987-42-2-3-4"
       width="42.666668"
       height="42.666668"
       x="298.66666"
       y="759.85297" />
    <rect
       style="fill:none;stroke-width:1.06666672"
       id="rect2987-42-2-5-8"
       width="42.666668"
       height="42.666668"
       x="170.66667"
       y="759.85297" />
    <rect
       style="fill:none;stroke-width:1.06666672"
       id="rect2987-42-2-5-5-8"
       width="42.666668"
       height="42.666668"
       x="256"
       y="759.85297" />
    <rect
       style="fill:none;stroke-width:1.06666672"
       id="rect2987-42-2-6"
       width="42.666668"
       height="42.666668"
       x="341.33334"
       y="589.18634" />
    <rect
       style="fill:none;stroke-width:1.06666672"
       id="rect2987-42-2-4-4"
       width="42.666668"
       height="42.666668"
       x="341.33334"
       y="631.85297" />
    <rect
       style="fill:none;stroke-width:1.06666672"
       id="rect2987-42-2-3-1"
       width="42.666668"
       height="42.666668"
       x="341.33334"
       y="717.18634" />
    <rect
       style="fill:none;stroke-width:1.06666672"
       id="rect2987-42-2-5-9"
       width="42.666668"
       height="42.666668"
       x="341.33334"
       y="546.51965" />
    <rect
       style="fill:none;stroke-width:1.06666672"
       id="rect2987-42-2-5-5-6"
       width="42.666668"
       height="42.666668"
       x="341.33334"
       y="674.51965" />
    <rect
       style="fill:none;stroke-width:1.06666672"
       id="rect2987-42-2-3-1-5"
       width="42.666668"
       height="42.666668"
       x="341.33334"
       y="759.85297" />
    <rect
       style="fill:none;stroke-width:1.06666672;stroke-miterlimit:4;stroke-dasharray:none;stroke-dashoffset:0"
       id="rect4132"
       width="192"
       height="192"
       x="160"
       y="578.51965" />
    <g
       id="g4198"
       transform="matrix(0.37343619,0,0,0.37343619,4.7333333,1097.3997)">
      <path
         id="path4188"
         d="M 0,0 H 51.2 V 51.2 H 0 Z"
         inkscape:connector-curvature="0"
         style="fill:none;stroke-width:1.06666672" />
    </g>
    <g
       id="g6215"
       transform="matrix(0.36470876,0,0,0.36470876,5.1355746,1097.391)">
      <path
         id="path6205"
         d="M 0,0 H 51.2 V 51.2 H 0 Z"
         inkscape:connector-curvature="0"
         style="fill:none;stroke-width:1.06666672" />
    </g>
    <g
       id="g3277"
       transform="matrix(0.4158519,0,0,0.4158519,84.325002,1055.8742)">
      <g
         transform="matrix(0.06226937,0,0,0.06226937,-28.237863,185.29075)"
         id="layer1-1"
         inkscape:label="Ebene 1">
        <g
           id="g4793"
           transform="matrix(38.617739,0,0,38.617739,14724.013,-13541.879)">
          <g
             id="layer1-6"
             inkscape:label="Livello 1"
             transform="translate(0,-576.38633)" />
          <g
             transform="matrix(1.0020367,0,0,1.0020367,-0.04344885,-1.1101175)"
             id="g3950" />
          <g
             id="g3097"
             transform="matrix(0.71435537,0,0,0.71435537,-400.52081,188.33812)">
            <path
               style="display:inline;opacity:0;fill:#ffffff;fill-opacity:1;fill-rule:evenodd;stroke:none;stroke-width:1.49318779"
               d="m 1293.1764,-120.67493 c -181.7499,0.2763 -511.17735,0.13525 -699.0452,0.13998 -2.32156,10.41336 -3.59298,21.250588 -3.59298,32.383512 V 25.844113 c 207.64946,0.736948 494.72268,0.38136 706.23118,0.373297 V -88.151438 c 0,-11.180243 -1.2522,-22.069512 -3.593,-32.523492 z M 834.48776,174.88291 c -78.38541,-0.004 -158.8503,0.17892 -243.94954,0.55995 v 138.63315 c 286.33647,-0.39317 421.72558,-0.13827 706.23118,-0.32664 V 176.0028 c -163.1967,-0.53005 -311.21862,-1.11132 -462.28164,-1.11989 z"
               id="path2843"
               inkscape:connector-curvature="0" />
          </g>
          <g
             id="g8016"
             transform="matrix(1.092577,0,0,1.0925926,-25.27611,-25.283957)" />
        </g>
      </g>
    </g>
    <path
       inkscape:connector-curvature="0"
       style="display:inline;opacity:0.2;fill:#263238;fill-opacity:1;fill-rule:nonzero;stroke:none;stroke-width:0.06666667;stroke-linecap:round;stroke-linejoin:round;stroke-miterlimit:4;stroke-dasharray:none;stroke-dashoffset:0;stroke-opacity:1"
       d="m 24.549441,1119.5437 c 0.663252,0 1.197867,-0.5346 1.197867,-1.1979 v -0.3333 c 0,0.6632 -0.534614,1.1978 -1.197867,1.1978 H 4.1952005 c -0.6632533,0 -1.1978672,-0.5346 -1.1978672,-1.1978 v 0.3333 c 0,0.6633 0.5346139,1.1979 1.1978672,1.1979 z"
       id="rect4731-2" />
  </g>
  <g
     inkscape:groupmode="layer"
     id="layer2"
     inkscape:label="icon"
     style="display:inline">
    <path
       inkscape:connector-curvature="0"
       style="fill:#ffffff;fill-opacity:1;stroke:none;stroke-width:0.01684257;stroke-opacity:1"
       d="M 14.32937,7.7842878 A 5.5936681,1.4793846 0 0 0 8.735716,9.2636891 5.5936681,1.4793846 0 0 0 14.32937,10.743056 5.5936681,1.4793846 0 0 0 19.923058,9.2636891 5.5936681,1.4793846 0 0 0 14.32937,7.7842878 Z M 8.7529544,10.004895 v 2.684273 c 0.019683,0.268702 0.018067,0.271192 0.2247208,0.413484 2.3481238,1.40504 8.6695158,1.326455 10.7762328,0.0018 0.198358,-0.142982 0.194705,-0.142982 0.213069,-0.413083 v -2.686448 c -1.914522,1.514679 -8.999074,1.611769 -11.2140227,0 z m -0.036721,3.402082 v 2.684271 c 0.019683,0.268703 0.018067,0.271192 0.2247209,0.413484 2.3481247,1.405041 8.6695157,1.326423 10.7762307,0.0017 0.19836,-0.142983 0.194707,-0.142982 0.213071,-0.413085 v -2.686413 c -1.914523,1.514679 -8.999076,1.611768 -11.2140227,0 z m 0,3.402046 v 2.684272 c 0.019683,0.268703 0.018067,0.271194 0.2247209,0.413486 2.3481247,1.405041 8.6695157,1.326455 10.7762307,0.0018 0.19836,-0.142981 0.194707,-0.142981 0.213071,-0.413084 v -2.68645 c -1.914524,1.514682 -8.999075,1.611769 -11.2140227,0 z"
       id="path832" />
  </g>
  <g
     inkscape:groupmode="layer"
     id="layer3"
     inkscape:label="hint"
     style="display:none"
     sodipodi:insensitive="true">
    <rect
       style="display:inline;opacity:1;fill:none;fill-opacity:1;stroke:#000000;stroke-width:0.07038245;stroke-miterlimit:4;stroke-dasharray:none;stroke-opacity:1"
       id="rect4387-7-8"
       width="13.100284"
       height="13.100285"
       x="7.8231916"
       y="-20.923475"
       transform="rotate(90)" />
    <rect
       style="opacity:1;fill:none;fill-opacity:1;fill-rule:nonzero;stroke:#5261ff;stroke-width:0.06958948;stroke-linecap:round;stroke-linejoin:round;stroke-miterlimit:4;stroke-dasharray:none;stroke-dashoffset:0;stroke-opacity:1"
       id="rect3862"
       width="14.29841"
       height="11.441077"
       x="7.2241287"
       y="8.6527958" />
    <rect
       style="display:inline;opacity:1;fill:none;fill-opacity:1;fill-rule:nonzero;stroke:#00ff00;stroke-width:0.06958948;stroke-linecap:round;stroke-linejoin:round;stroke-miterlimit:4;stroke-dasharray:none;stroke-dashoffset:0;stroke-opacity:1"
       id="rect3862-6"
       width="14.29841"
       height="11.441076"
       x="7.2241287"
       y="-20.093872"
       transform="rotate(90)" />
  </g>
</svg>
